{
    "executionRoleArn": "arn:aws:iam::407878606922:role/ecsTaskExecutionRole",
    "containerDefinitions": [
        {
            "name": "thnik-matter-view-container-def",
            "image": "<IMAGE1_NAME>",
            "essential": true,
            "portMappings": [
                {
                    "hostPort": 80,
                    "protocol": "tcp",
                    "containerPort": 80
                }
            ]
        }
    ],
    "requiresCompatibilities": [
        "EC2"
    ],
    "cpu": "256",
    "memory": "512",
    "family": "ecs-demo"
}